[gd_scene load_steps=4 format=2]

[ext_resource path="res://assets/fonts/vegur/Vegur-Bold.otf" type="DynamicFontData" id=1]
[ext_resource path="res://scripts/code.gd" type="Script" id=2]

[sub_resource type="DynamicFont" id=1]
size = 64
use_filter = true
font_data = ExtResource( 1 )

[node name="code" type="Control"]
anchor_right = 1.0
anchor_bottom = 1.0
script = ExtResource( 2 )

[node name="Blue" type="ColorRect" parent="."]
anchor_right = 1.0
anchor_bottom = 1.0
color = Color( 0.458824, 0.784314, 1, 1 )

[node name="Red" type="ColorRect" parent="."]
visible = false
anchor_right = 1.0
anchor_bottom = 1.0
color = Color( 1, 0, 0, 1 )

[node name="Code" type="Label" parent="."]
anchor_right = 1.0
anchor_bottom = 1.0
custom_fonts/font = SubResource( 1 )
text = "1 2 3 4"
align = 1
valign = 1
