[gd_scene load_steps=2 format=2]

[ext_resource path="res://scripts/music.gd" type="Script" id=1]

[node name="Music" type="Node"]
script = ExtResource( 1 )

[node name="MusicPlayer" type="AudioStreamPlayer" parent="."]
volume_db = -25.0
