[gd_scene load_steps=6 format=2]

[ext_resource path="res://assets/materials/floor.material" type="Material" id=1]
[ext_resource path="res://assets/materials/wall.material" type="Material" id=2]
[ext_resource path="res://scripts/adoorable.gd" type="Script" id=3]

[sub_resource type="ArrayMesh" id=1]
resource_name = "corridor-t-intersection_Cube004"
surfaces/0 = {
"aabb": AABB( -1, -1, -1, 2.00001, 1.00136e-05, 2.00001 ),
"array_data": PoolByteArray( 0, 0, 128, 63, 0, 0, 128, 191, 255, 255, 127, 63, 0, 129, 129, 127, 0, 48, 0, 52, 255, 255, 127, 191, 0, 0, 128, 191, 0, 0, 128, 63, 0, 129, 129, 127, 0, 48, 0, 56, 255, 255, 127, 63, 0, 0, 128, 191, 0, 0, 128, 191, 0, 129, 129, 127, 0, 54, 0, 52, 0, 0, 128, 191, 0, 0, 128, 191, 255, 255, 127, 191, 0, 129, 129, 127, 0, 54, 0, 56 ),
"array_index_data": PoolByteArray( 1, 0, 2, 0, 3, 0, 1, 0, 0, 0, 2, 0 ),
"blend_shape_data": [  ],
"format": 2194711,
"index_count": 6,
"material": ExtResource( 1 ),
"primitive": 4,
"skeleton_aabb": [  ],
"vertex_count": 4
}
surfaces/1 = {
"aabb": AABB( -1, -1, -1, 2.00001, 2.00001, 2.00001 ),
"array_data": PoolByteArray( 0, 0, 128, 63, 254, 255, 127, 63, 255, 255, 127, 63, 0, 127, 0, 63, 0, 59, 0, 52, 255, 255, 127, 191, 0, 0, 128, 191, 0, 0, 128, 63, 129, 0, 127, 193, 0, 48, 0, 56, 255, 255, 127, 191, 254, 255, 127, 63, 0, 0, 128, 63, 129, 0, 127, 193, 0, 59, 0, 56, 255, 255, 127, 191, 254, 255, 127, 63, 0, 0, 128, 63, 0, 127, 0, 63, 0, 59, 0, 56, 255, 255, 127, 63, 254, 255, 127, 63, 0, 0, 128, 191, 0, 127, 0, 63, 0, 57, 0, 52, 0, 0, 128, 191, 0, 0, 128, 191, 255, 255, 127, 191, 129, 0, 127, 193, 0, 54, 0, 56, 0, 0, 128, 191, 254, 255, 127, 63, 255, 255, 127, 191, 129, 0, 127, 193, 0, 57, 0, 56, 0, 0, 128, 191, 254, 255, 127, 63, 255, 255, 127, 191, 0, 127, 0, 63, 0, 57, 0, 56 ),
"array_index_data": PoolByteArray( 7, 0, 0, 0, 3, 0, 7, 0, 4, 0, 0, 0, 1, 0, 6, 0, 2, 0, 1, 0, 5, 0, 6, 0 ),
"blend_shape_data": [  ],
"format": 2194711,
"index_count": 12,
"material": ExtResource( 2 ),
"primitive": 4,
"skeleton_aabb": [  ],
"vertex_count": 8
}

[sub_resource type="ConcavePolygonShape" id=2]
data = PoolVector3Array( -1, -1, 1, 1, -1, -1, -1, -1, -1, -1, -1, 1, 1, -1, 1, 1, -1, -1, -1, 1, -1, 1, 1, 1, -1, 1, 1, -1, 1, -1, 1, 1, -1, 1, 1, 1, -1, -1, 1, -1, 1, -1, -1, 1, 1, -1, -1, 1, -1, -1, -1, -1, 1, -1 )

[node name="corridor-t-intersection" type="Spatial"]
script = ExtResource( 3 )

[node name="Cube" type="MeshInstance" parent="."]
transform = Transform( 2.5, 0, 0, 0, 2.5, 0, 0, 0, 2.5, 0, 2.5, 0 )
mesh = SubResource( 1 )
material/0 = null
material/1 = null

[node name="StaticBody" type="StaticBody" parent="Cube"]

[node name="CollisionShape" type="CollisionShape" parent="Cube/StaticBody"]
shape = SubResource( 2 )
