[gd_resource type="Environment" format=2]

[resource]
background_mode = 1
fog_enabled = true
fog_color = Color( 0.0666667, 0.0666667, 0.0666667, 1 )
fog_transmit_enabled = true
fog_height_enabled = true
fog_height_min = 6.0
tonemap_exposure = 1.11
dof_blur_far_enabled = true
dof_blur_far_distance = 6.59
dof_blur_far_transition = 10.0
dof_blur_far_quality = 2
glow_enabled = true
glow_bicubic_upscale = true
adjustment_enabled = true
adjustment_brightness = 1.16
adjustment_contrast = 1.03
