[gd_scene load_steps=9 format=2]

[ext_resource path="res://assets/tiles/lamp/lamp.material" type="Material" id=1]
[ext_resource path="res://assets/tiles/lamp/light.material" type="Material" id=2]
[ext_resource path="res://scripts/lamp.gd" type="Script" id=3]

[sub_resource type="ArrayMesh" id=1]
resource_name = "lamp_Cylinder"
surfaces/0 = {
"aabb": AABB( -1, -0.25, -1, 2, 0.25, 2 ),
"array_data": PoolByteArray( 27, 132, 239, 177, 0, 0, 128, 190, 2, 230, 101, 191, 0, 129, 126, 193, 0, 58, 70, 56, 0, 0, 0, 0, 0, 0, 0, 0, 0, 0, 128, 191, 129, 105, 151, 63, 0, 0, 0, 0, 0, 0, 0, 0, 0, 0, 0, 0, 0, 0, 128, 191, 0, 127, 127, 63, 0, 52, 20, 56, 0, 0, 0, 0, 0, 0, 0, 0, 0, 0, 128, 191, 127, 105, 129, 74, 0, 60, 0, 0, 233, 244, 175, 62, 0, 0, 128, 190, 3, 102, 84, 191, 0, 129, 127, 193, 168, 58, 104, 56, 22, 239, 195, 62, 0, 0, 0, 0, 94, 131, 108, 191, 0, 127, 127, 63, 120, 53, 57, 56, 22, 239, 195, 62, 0, 0, 0, 0, 94, 131, 108, 191, 127, 105, 129, 74, 128, 59, 0, 0, 22, 239, 195, 62, 0, 0, 0, 0, 94, 131, 108, 191, 127, 76, 129, 88, 128, 59, 0, 0, 17, 144, 34, 63, 0, 0, 128, 190, 17, 144, 34, 191, 0, 129, 126, 193, 56, 59, 199, 56, 243, 4, 53, 63, 0, 0, 0, 0, 243, 4, 53, 191, 0, 127, 127, 63, 183, 54, 164, 56, 243, 4, 53, 63, 0, 0, 0, 0, 243, 4, 53, 191, 127, 76, 129, 88, 0, 59, 0, 0, 243, 4, 53, 63, 0, 0, 0, 0, 243, 4, 53, 191, 127, 50, 129, 101, 0, 59, 0, 0, 3, 102, 84, 63, 0, 0, 128, 190, 232, 244, 175, 190, 0, 129, 127, 193, 151, 59, 87, 57, 3, 102, 84, 63, 0, 0, 128, 190, 232, 244, 175, 190, 0, 130, 126, 193, 151, 59, 87, 57, 94, 131, 108, 63, 0, 0, 0, 0, 21, 239, 195, 190, 0, 127, 127, 63, 140, 55, 67, 57, 94, 131, 108, 63, 0, 0, 0, 0, 21, 239, 195, 190, 127, 50, 129, 101, 128, 58, 0, 0, 94, 131, 108, 63, 0, 0, 0, 0, 21, 239, 195, 190, 127, 21, 129, 116, 128, 58, 0, 0, 2, 230, 101, 63, 0, 0, 128, 190, 219, 178, 79, 51, 0, 130, 126, 193, 185, 59, 0, 58, 2, 230, 101, 63, 0, 0, 128, 190, 219, 178, 79, 51, 0, 130, 126, 193, 185, 59, 0, 58, 0, 0, 128, 63, 0, 0, 0, 0, 46, 189, 59, 51, 0, 127, 126, 63, 215, 55, 0, 58, 0, 0, 128, 63, 0, 0, 0, 0, 46, 189, 59, 51, 127, 21, 129, 116, 0, 58, 0, 0, 0, 0, 128, 63, 0, 0, 0, 0, 46, 189, 59, 51, 105, 0, 127, 116, 0, 58, 0, 0, 4, 102, 84, 63, 0, 0, 128, 190, 231, 244, 175, 62, 0, 130, 126, 193, 151, 59, 168, 58, 4, 102, 84, 63, 0, 0, 128, 190, 231, 244, 175, 62, 0, 129, 127, 193, 151, 59, 168, 58, 95, 131, 108, 63, 0, 0, 0, 0, 20, 239, 195, 62, 0, 127, 127, 63, 140, 55, 188, 58, 95, 131, 108, 63, 0, 0, 0, 0, 20, 239, 195, 62, 76, 0, 127, 101, 128, 57, 0, 0, 95, 131, 108, 63, 0, 0, 0, 0, 20, 239, 195, 62, 105, 0, 127, 116, 128, 57, 0, 0, 17, 144, 34, 63, 0, 0, 128, 190, 17, 144, 34, 63, 0, 129, 127, 193, 56, 59, 56, 59, 243, 4, 53, 63, 0, 0, 0, 0, 243, 4, 53, 63, 0, 127, 127, 63, 183, 54, 91, 59, 243, 4, 53, 63, 0, 0, 0, 0, 243, 4, 53, 63, 50, 0, 127, 88, 0, 57, 0, 0, 243, 4, 53, 63, 0, 0, 0, 0, 243, 4, 53, 63, 76, 0, 127, 101, 0, 57, 0, 0, 234, 244, 175, 62, 0, 0, 128, 190, 3, 102, 84, 63, 0, 129, 127, 193, 168, 58, 151, 59, 23, 239, 195, 62, 0, 0, 0, 0, 94, 131, 108, 63, 0, 127, 126, 63, 120, 53, 198, 59, 23, 239, 195, 62, 0, 0, 0, 0, 94, 131, 108, 63, 21, 0, 127, 74, 128, 56, 0, 0, 23, 239, 195, 62, 0, 0, 0, 0, 94, 131, 108, 63, 50, 0, 127, 88, 128, 56, 0, 0, 236, 196, 172, 179, 0, 0, 128, 190, 2, 230, 101, 63, 0, 129, 126, 193, 0, 58, 185, 59, 46, 189, 187, 179, 0, 0, 0, 0, 0, 0, 128, 63, 235, 0, 105, 63, 0, 56, 0, 0, 46, 189, 187, 179, 0, 0, 0, 0, 0, 0, 128, 63, 0, 127, 127, 63, 255, 51, 235, 59, 46, 189, 187, 179, 0, 0, 0, 0, 0, 0, 128, 63, 21, 0, 127, 74, 0, 56, 0, 0, 232, 244, 175, 190, 0, 0, 128, 190, 3, 102, 84, 63, 0, 129, 127, 193, 87, 57, 151, 59, 21, 239, 195, 190, 0, 0, 0, 0, 94, 131, 108, 63, 206, 0, 76, 63, 0, 55, 0, 0, 21, 239, 195, 190, 0, 0, 0, 0, 94, 131, 108, 63, 235, 0, 105, 63, 0, 55, 0, 0, 21, 239, 195, 190, 0, 0, 0, 0, 94, 131, 108, 63, 0, 127, 127, 63, 15, 49, 198, 59, 16, 144, 34, 191, 0, 0, 128, 190, 18, 144, 34, 63, 0, 129, 126, 193, 199, 56, 56, 59, 242, 4, 53, 191, 0, 0, 0, 0, 244, 4, 53, 63, 180, 0, 50, 63, 0, 54, 0, 0, 242, 4, 53, 191, 0, 0, 0, 0, 244, 4, 53, 63, 206, 0, 76, 63, 0, 54, 0, 0, 242, 4, 53, 191, 0, 0, 0, 0, 244, 4, 53, 63, 0, 127, 127, 63, 35, 45, 91, 59, 3, 102, 84, 191, 0, 0, 128, 190, 237, 244, 175, 62, 0, 129, 126, 193, 104, 56, 168, 58, 94, 131, 108, 191, 0, 0, 0, 0, 26, 239, 195, 62, 151, 0, 21, 63, 0, 53, 0, 0, 94, 131, 108, 191, 0, 0, 0, 0, 26, 239, 195, 62, 180, 0, 50, 63, 0, 53, 0, 0, 94, 131, 108, 191, 0, 0, 0, 0, 26, 239, 195, 62, 0, 127, 126, 63, 60, 39, 188, 58, 2, 230, 101, 191, 0, 0, 128, 190, 63, 56, 170, 177, 0, 129, 126, 193, 70, 56, 0, 58, 0, 0, 128, 191, 0, 0, 0, 0, 46, 222, 76, 178, 151, 0, 21, 63, 0, 52, 0, 0, 0, 0, 128, 191, 0, 0, 0, 0, 46, 222, 76, 178, 129, 21, 235, 63, 0, 52, 0, 0, 0, 0, 128, 191, 0, 0, 0, 0, 46, 222, 76, 178, 0, 127, 126, 63, 30, 33, 0, 58, 2, 102, 84, 191, 0, 0, 128, 190, 238, 244, 175, 190, 0, 129, 127, 193, 104, 56, 87, 57, 93, 131, 108, 191, 0, 0, 0, 0, 27, 239, 195, 190, 129, 21, 235, 63, 0, 50, 0, 0, 93, 131, 108, 191, 0, 0, 0, 0, 27, 239, 195, 190, 129, 50, 206, 63, 0, 50, 0, 0, 93, 131, 108, 191, 0, 0, 0, 0, 27, 239, 195, 190, 0, 127, 126, 63, 60, 39, 67, 57, 19, 144, 34, 191, 0, 0, 128, 190, 15, 144, 34, 191, 0, 129, 127, 193, 199, 56, 199, 56, 245, 4, 53, 191, 0, 0, 0, 0, 241, 4, 53, 191, 129, 50, 206, 63, 0, 48, 0, 0, 245, 4, 53, 191, 0, 0, 0, 0, 241, 4, 53, 191, 129, 76, 180, 63, 0, 48, 0, 0, 245, 4, 53, 191, 0, 0, 0, 0, 241, 4, 53, 191, 0, 127, 127, 63, 35, 45, 164, 56, 232, 244, 175, 190, 0, 0, 128, 190, 4, 102, 84, 191, 0, 129, 126, 193, 87, 57, 104, 56, 21, 239, 195, 190, 0, 0, 0, 0, 95, 131, 108, 191, 129, 76, 180, 63, 0, 44, 0, 0, 21, 239, 195, 190, 0, 0, 0, 0, 95, 131, 108, 191, 129, 105, 151, 63, 0, 44, 0, 0, 21, 239, 195, 190, 0, 0, 0, 0, 95, 131, 108, 191, 0, 127, 126, 63, 15, 49, 57, 56, 0, 0, 0, 0, 0, 0, 128, 190, 0, 0, 128, 191, 129, 105, 151, 63, 0, 0, 0, 56, 0, 0, 0, 0, 0, 0, 128, 190, 0, 0, 128, 191, 0, 129, 126, 193, 0, 58, 20, 56, 0, 0, 0, 0, 0, 0, 128, 190, 0, 0, 128, 191, 127, 105, 129, 74, 0, 60, 0, 56, 22, 239, 195, 62, 0, 0, 128, 190, 94, 131, 108, 191, 0, 129, 127, 193, 188, 58, 57, 56, 22, 239, 195, 62, 0, 0, 128, 190, 94, 131, 108, 191, 127, 105, 129, 74, 128, 59, 0, 56, 22, 239, 195, 62, 0, 0, 128, 190, 94, 131, 108, 191, 127, 76, 129, 88, 128, 59, 0, 56, 243, 4, 53, 63, 0, 0, 128, 190, 243, 4, 53, 191, 0, 129, 126, 193, 91, 59, 164, 56, 243, 4, 53, 63, 0, 0, 128, 190, 243, 4, 53, 191, 127, 76, 129, 88, 0, 59, 0, 56, 243, 4, 53, 63, 0, 0, 128, 190, 243, 4, 53, 191, 127, 50, 129, 101, 0, 59, 0, 56, 94, 131, 108, 63, 0, 0, 128, 190, 21, 239, 195, 190, 0, 129, 127, 193, 198, 59, 67, 57, 94, 131, 108, 63, 0, 0, 128, 190, 21, 239, 195, 190, 0, 130, 126, 193, 198, 59, 67, 57, 94, 131, 108, 63, 0, 0, 128, 190, 21, 239, 195, 190, 127, 50, 129, 101, 128, 58, 0, 56, 94, 131, 108, 63, 0, 0, 128, 190, 21, 239, 195, 190, 127, 21, 129, 116, 128, 58, 0, 56, 0, 0, 128, 63, 0, 0, 128, 190, 46, 189, 59, 51, 0, 130, 126, 193, 235, 59, 0, 58, 0, 0, 128, 63, 0, 0, 128, 190, 46, 189, 59, 51, 0, 130, 126, 193, 235, 59, 0, 58, 0, 0, 128, 63, 0, 0, 128, 190, 46, 189, 59, 51, 127, 21, 129, 116, 0, 58, 0, 56, 0, 0, 128, 63, 0, 0, 128, 190, 46, 189, 59, 51, 105, 0, 127, 116, 0, 58, 0, 56, 95, 131, 108, 63, 0, 0, 128, 190, 20, 239, 195, 62, 0, 130, 126, 193, 198, 59, 188, 58, 95, 131, 108, 63, 0, 0, 128, 190, 20, 239, 195, 62, 0, 129, 127, 193, 198, 59, 188, 58, 95, 131, 108, 63, 0, 0, 128, 190, 20, 239, 195, 62, 76, 0, 127, 101, 128, 57, 0, 56, 95, 131, 108, 63, 0, 0, 128, 190, 20, 239, 195, 62, 105, 0, 127, 116, 128, 57, 0, 56, 243, 4, 53, 63, 0, 0, 128, 190, 243, 4, 53, 63, 0, 129, 127, 193, 91, 59, 91, 59, 243, 4, 53, 63, 0, 0, 128, 190, 243, 4, 53, 63, 50, 0, 127, 88, 0, 57, 0, 56, 243, 4, 53, 63, 0, 0, 128, 190, 243, 4, 53, 63, 76, 0, 127, 101, 0, 57, 0, 56, 23, 239, 195, 62, 0, 0, 128, 190, 94, 131, 108, 63, 0, 129, 127, 193, 188, 58, 198, 59, 23, 239, 195, 62, 0, 0, 128, 190, 94, 131, 108, 63, 21, 0, 127, 74, 128, 56, 0, 56, 23, 239, 195, 62, 0, 0, 128, 190, 94, 131, 108, 63, 50, 0, 127, 88, 128, 56, 0, 56, 46, 189, 187, 179, 0, 0, 128, 190, 0, 0, 128, 63, 235, 0, 105, 63, 0, 56, 0, 56, 46, 189, 187, 179, 0, 0, 128, 190, 0, 0, 128, 63, 0, 129, 126, 193, 0, 58, 235, 59, 46, 189, 187, 179, 0, 0, 128, 190, 0, 0, 128, 63, 21, 0, 127, 74, 0, 56, 0, 56, 21, 239, 195, 190, 0, 0, 128, 190, 94, 131, 108, 63, 206, 0, 76, 63, 0, 55, 0, 56, 21, 239, 195, 190, 0, 0, 128, 190, 94, 131, 108, 63, 235, 0, 105, 63, 0, 55, 0, 56, 21, 239, 195, 190, 0, 0, 128, 190, 94, 131, 108, 63, 0, 129, 127, 193, 67, 57, 198, 59, 242, 4, 53, 191, 0, 0, 128, 190, 244, 4, 53, 63, 180, 0, 50, 63, 0, 54, 0, 56, 242, 4, 53, 191, 0, 0, 128, 190, 244, 4, 53, 63, 206, 0, 76, 63, 0, 54, 0, 56, 242, 4, 53, 191, 0, 0, 128, 190, 244, 4, 53, 63, 0, 129, 126, 193, 164, 56, 91, 59, 94, 131, 108, 191, 0, 0, 128, 190, 26, 239, 195, 62, 151, 0, 21, 63, 0, 53, 0, 56, 94, 131, 108, 191, 0, 0, 128, 190, 26, 239, 195, 62, 180, 0, 50, 63, 0, 53, 0, 56, 94, 131, 108, 191, 0, 0, 128, 190, 26, 239, 195, 62, 0, 129, 126, 193, 57, 56, 188, 58, 0, 0, 128, 191, 0, 0, 128, 190, 46, 222, 76, 178, 151, 0, 21, 63, 0, 52, 0, 56, 0, 0, 128, 191, 0, 0, 128, 190, 46, 222, 76, 178, 129, 21, 235, 63, 0, 52, 0, 56, 0, 0, 128, 191, 0, 0, 128, 190, 46, 222, 76, 178, 0, 129, 127, 193, 20, 56, 0, 58, 93, 131, 108, 191, 0, 0, 128, 190, 27, 239, 195, 190, 129, 21, 235, 63, 0, 50, 0, 56, 93, 131, 108, 191, 0, 0, 128, 190, 27, 239, 195, 190, 129, 50, 206, 63, 0, 50, 0, 56, 93, 131, 108, 191, 0, 0, 128, 190, 27, 239, 195, 190, 0, 129, 127, 193, 57, 56, 67, 57, 245, 4, 53, 191, 0, 0, 128, 190, 241, 4, 53, 191, 129, 50, 206, 63, 0, 48, 0, 56, 245, 4, 53, 191, 0, 0, 128, 190, 241, 4, 53, 191, 129, 76, 180, 63, 0, 48, 0, 56, 245, 4, 53, 191, 0, 0, 128, 190, 241, 4, 53, 191, 0, 129, 127, 193, 164, 56, 164, 56, 21, 239, 195, 190, 0, 0, 128, 190, 95, 131, 108, 191, 129, 76, 180, 63, 0, 44, 0, 56, 21, 239, 195, 190, 0, 0, 128, 190, 95, 131, 108, 191, 129, 105, 151, 63, 0, 44, 0, 56, 21, 239, 195, 190, 0, 0, 128, 190, 95, 131, 108, 191, 0, 129, 126, 193, 67, 57, 57, 56 ),
"array_index_data": PoolByteArray( 69, 0, 6, 0, 3, 0, 69, 0, 71, 0, 6, 0, 72, 0, 10, 0, 7, 0, 72, 0, 74, 0, 10, 0, 75, 0, 15, 0, 11, 0, 75, 0, 78, 0, 15, 0, 79, 0, 20, 0, 16, 0, 79, 0, 82, 0, 20, 0, 83, 0, 26, 0, 21, 0, 83, 0, 87, 0, 26, 0, 86, 0, 30, 0, 25, 0, 86, 0, 90, 0, 30, 0, 89, 0, 34, 0, 29, 0, 89, 0, 93, 0, 34, 0, 92, 0, 38, 0, 33, 0, 92, 0, 96, 0, 38, 0, 94, 0, 41, 0, 36, 0, 94, 0, 98, 0, 41, 0, 97, 0, 45, 0, 40, 0, 97, 0, 101, 0, 45, 0, 100, 0, 49, 0, 44, 0, 100, 0, 104, 0, 49, 0, 103, 0, 52, 0, 48, 0, 103, 0, 106, 0, 52, 0, 107, 0, 56, 0, 53, 0, 107, 0, 109, 0, 56, 0, 110, 0, 60, 0, 57, 0, 110, 0, 112, 0, 60, 0, 9, 0, 2, 0, 5, 0, 2, 0, 62, 0, 66, 0, 62, 0, 54, 0, 58, 0, 54, 0, 46, 0, 50, 0, 46, 0, 37, 0, 42, 0, 37, 0, 28, 0, 32, 0, 28, 0, 19, 0, 24, 0, 19, 0, 9, 0, 14, 0, 9, 0, 62, 0, 2, 0, 62, 0, 46, 0, 54, 0, 46, 0, 28, 0, 37, 0, 28, 0, 9, 0, 19, 0, 9, 0, 46, 0, 62, 0, 46, 0, 9, 0, 28, 0, 113, 0, 64, 0, 61, 0, 113, 0, 115, 0, 64, 0, 116, 0, 1, 0, 65, 0, 116, 0, 67, 0, 1, 0, 4, 0, 68, 0, 0, 0, 4, 0, 70, 0, 68, 0, 8, 0, 70, 0, 4, 0, 8, 0, 73, 0, 70, 0, 12, 0, 73, 0, 8, 0, 12, 0, 76, 0, 73, 0, 18, 0, 77, 0, 13, 0, 18, 0, 81, 0, 77, 0, 22, 0, 80, 0, 17, 0, 22, 0, 84, 0, 80, 0, 27, 0, 85, 0, 23, 0, 27, 0, 88, 0, 85, 0, 31, 0, 88, 0, 27, 0, 31, 0, 91, 0, 88, 0, 35, 0, 91, 0, 31, 0, 35, 0, 95, 0, 91, 0, 39, 0, 95, 0, 35, 0, 39, 0, 99, 0, 95, 0, 43, 0, 99, 0, 39, 0, 43, 0, 102, 0, 99, 0, 47, 0, 102, 0, 43, 0, 47, 0, 105, 0, 102, 0, 51, 0, 105, 0, 47, 0, 51, 0, 108, 0, 105, 0, 55, 0, 108, 0, 51, 0, 55, 0, 111, 0, 108, 0, 59, 0, 111, 0, 55, 0, 59, 0, 114, 0, 111, 0, 63, 0, 114, 0, 59, 0, 63, 0, 117, 0, 114, 0, 0, 0, 117, 0, 63, 0, 0, 0, 68, 0, 117, 0 ),
"blend_shape_data": [  ],
"format": 2194711,
"index_count": 234,
"material": ExtResource( 1 ),
"primitive": 4,
"skeleton_aabb": [  ],
"vertex_count": 118
}
surfaces/1 = {
"aabb": AABB( -0.898041, -0.25, -0.898041, 1.79608, 9.99868e-06, 1.79608 ),
"array_data": PoolByteArray( 27, 132, 239, 177, 0, 0, 128, 190, 2, 230, 101, 191, 0, 129, 127, 193, 0, 58, 70, 56, 233, 244, 175, 62, 0, 0, 128, 190, 3, 102, 84, 191, 0, 129, 127, 193, 168, 58, 104, 56, 17, 144, 34, 63, 0, 0, 128, 190, 17, 144, 34, 191, 0, 129, 127, 193, 56, 59, 199, 56, 3, 102, 84, 63, 0, 0, 128, 190, 232, 244, 175, 190, 0, 129, 127, 193, 151, 59, 87, 57, 2, 230, 101, 63, 0, 0, 128, 190, 219, 178, 79, 51, 0, 129, 127, 193, 185, 59, 0, 58, 4, 102, 84, 63, 0, 0, 128, 190, 231, 244, 175, 62, 0, 129, 127, 193, 151, 59, 168, 58, 17, 144, 34, 63, 0, 0, 128, 190, 17, 144, 34, 63, 0, 129, 127, 193, 56, 59, 56, 59, 234, 244, 175, 62, 0, 0, 128, 190, 3, 102, 84, 63, 0, 129, 127, 193, 168, 58, 151, 59, 236, 196, 172, 179, 0, 0, 128, 190, 2, 230, 101, 63, 0, 129, 127, 193, 0, 58, 185, 59, 232, 244, 175, 190, 0, 0, 128, 190, 3, 102, 84, 63, 0, 129, 127, 193, 87, 57, 151, 59, 16, 144, 34, 191, 0, 0, 128, 190, 18, 144, 34, 63, 0, 129, 127, 193, 199, 56, 56, 59, 3, 102, 84, 191, 0, 0, 128, 190, 237, 244, 175, 62, 0, 129, 126, 193, 104, 56, 168, 58, 2, 230, 101, 191, 0, 0, 128, 190, 63, 56, 170, 177, 0, 129, 127, 193, 70, 56, 0, 58, 2, 102, 84, 191, 0, 0, 128, 190, 238, 244, 175, 190, 0, 129, 126, 193, 104, 56, 87, 57, 19, 144, 34, 191, 0, 0, 128, 190, 15, 144, 34, 191, 0, 129, 126, 193, 199, 56, 199, 56, 232, 244, 175, 190, 0, 0, 128, 190, 4, 102, 84, 191, 0, 129, 126, 193, 87, 57, 104, 56 ),
"array_index_data": PoolByteArray( 15, 0, 1, 0, 0, 0, 1, 0, 3, 0, 2, 0, 3, 0, 5, 0, 4, 0, 5, 0, 7, 0, 6, 0, 7, 0, 9, 0, 8, 0, 9, 0, 11, 0, 10, 0, 11, 0, 13, 0, 12, 0, 13, 0, 15, 0, 14, 0, 15, 0, 3, 0, 1, 0, 3, 0, 7, 0, 5, 0, 7, 0, 11, 0, 9, 0, 11, 0, 15, 0, 13, 0, 15, 0, 7, 0, 3, 0, 7, 0, 15, 0, 11, 0 ),
"blend_shape_data": [  ],
"format": 2194711,
"index_count": 42,
"material": ExtResource( 2 ),
"primitive": 4,
"skeleton_aabb": [  ],
"vertex_count": 16
}

[sub_resource type="SpatialMaterial" id=2]
resource_name = "light"
vertex_color_use_as_albedo = true
params_cull_mode = 2
albedo_color = Color( 1, 0.831373, 0.831373, 1 )
roughness = 0.5
emission_enabled = true
emission = Color( 1, 0, 0, 1 )
emission_energy = 3.0
emission_operator = 0
emission_on_uv2 = false

[sub_resource type="ArrayMesh" id=3]
resource_name = "lamp_Cylinder"
surfaces/0 = {
"aabb": AABB( -1, -0.25, -1, 2, 0.25, 2 ),
"array_data": PoolByteArray( 27, 132, 239, 177, 0, 0, 128, 190, 2, 230, 101, 191, 0, 129, 126, 193, 0, 58, 70, 56, 0, 0, 0, 0, 0, 0, 0, 0, 0, 0, 128, 191, 129, 105, 151, 63, 0, 0, 0, 0, 0, 0, 0, 0, 0, 0, 0, 0, 0, 0, 128, 191, 0, 127, 127, 63, 0, 52, 20, 56, 0, 0, 0, 0, 0, 0, 0, 0, 0, 0, 128, 191, 127, 105, 129, 74, 0, 60, 0, 0, 233, 244, 175, 62, 0, 0, 128, 190, 3, 102, 84, 191, 0, 129, 127, 193, 168, 58, 104, 56, 22, 239, 195, 62, 0, 0, 0, 0, 94, 131, 108, 191, 0, 127, 127, 63, 120, 53, 57, 56, 22, 239, 195, 62, 0, 0, 0, 0, 94, 131, 108, 191, 127, 105, 129, 74, 128, 59, 0, 0, 22, 239, 195, 62, 0, 0, 0, 0, 94, 131, 108, 191, 127, 76, 129, 88, 128, 59, 0, 0, 17, 144, 34, 63, 0, 0, 128, 190, 17, 144, 34, 191, 0, 129, 126, 193, 56, 59, 199, 56, 243, 4, 53, 63, 0, 0, 0, 0, 243, 4, 53, 191, 0, 127, 127, 63, 183, 54, 164, 56, 243, 4, 53, 63, 0, 0, 0, 0, 243, 4, 53, 191, 127, 76, 129, 88, 0, 59, 0, 0, 243, 4, 53, 63, 0, 0, 0, 0, 243, 4, 53, 191, 127, 50, 129, 101, 0, 59, 0, 0, 3, 102, 84, 63, 0, 0, 128, 190, 232, 244, 175, 190, 0, 129, 127, 193, 151, 59, 87, 57, 3, 102, 84, 63, 0, 0, 128, 190, 232, 244, 175, 190, 0, 130, 126, 193, 151, 59, 87, 57, 94, 131, 108, 63, 0, 0, 0, 0, 21, 239, 195, 190, 0, 127, 127, 63, 140, 55, 67, 57, 94, 131, 108, 63, 0, 0, 0, 0, 21, 239, 195, 190, 127, 50, 129, 101, 128, 58, 0, 0, 94, 131, 108, 63, 0, 0, 0, 0, 21, 239, 195, 190, 127, 21, 129, 116, 128, 58, 0, 0, 2, 230, 101, 63, 0, 0, 128, 190, 219, 178, 79, 51, 0, 130, 126, 193, 185, 59, 0, 58, 2, 230, 101, 63, 0, 0, 128, 190, 219, 178, 79, 51, 0, 130, 126, 193, 185, 59, 0, 58, 0, 0, 128, 63, 0, 0, 0, 0, 46, 189, 59, 51, 0, 127, 126, 63, 215, 55, 0, 58, 0, 0, 128, 63, 0, 0, 0, 0, 46, 189, 59, 51, 127, 21, 129, 116, 0, 58, 0, 0, 0, 0, 128, 63, 0, 0, 0, 0, 46, 189, 59, 51, 105, 0, 127, 116, 0, 58, 0, 0, 4, 102, 84, 63, 0, 0, 128, 190, 231, 244, 175, 62, 0, 130, 126, 193, 151, 59, 168, 58, 4, 102, 84, 63, 0, 0, 128, 190, 231, 244, 175, 62, 0, 129, 127, 193, 151, 59, 168, 58, 95, 131, 108, 63, 0, 0, 0, 0, 20, 239, 195, 62, 0, 127, 127, 63, 140, 55, 188, 58, 95, 131, 108, 63, 0, 0, 0, 0, 20, 239, 195, 62, 76, 0, 127, 101, 128, 57, 0, 0, 95, 131, 108, 63, 0, 0, 0, 0, 20, 239, 195, 62, 105, 0, 127, 116, 128, 57, 0, 0, 17, 144, 34, 63, 0, 0, 128, 190, 17, 144, 34, 63, 0, 129, 127, 193, 56, 59, 56, 59, 243, 4, 53, 63, 0, 0, 0, 0, 243, 4, 53, 63, 0, 127, 127, 63, 183, 54, 91, 59, 243, 4, 53, 63, 0, 0, 0, 0, 243, 4, 53, 63, 50, 0, 127, 88, 0, 57, 0, 0, 243, 4, 53, 63, 0, 0, 0, 0, 243, 4, 53, 63, 76, 0, 127, 101, 0, 57, 0, 0, 234, 244, 175, 62, 0, 0, 128, 190, 3, 102, 84, 63, 0, 129, 127, 193, 168, 58, 151, 59, 23, 239, 195, 62, 0, 0, 0, 0, 94, 131, 108, 63, 0, 127, 126, 63, 120, 53, 198, 59, 23, 239, 195, 62, 0, 0, 0, 0, 94, 131, 108, 63, 21, 0, 127, 74, 128, 56, 0, 0, 23, 239, 195, 62, 0, 0, 0, 0, 94, 131, 108, 63, 50, 0, 127, 88, 128, 56, 0, 0, 236, 196, 172, 179, 0, 0, 128, 190, 2, 230, 101, 63, 0, 129, 126, 193, 0, 58, 185, 59, 46, 189, 187, 179, 0, 0, 0, 0, 0, 0, 128, 63, 235, 0, 105, 63, 0, 56, 0, 0, 46, 189, 187, 179, 0, 0, 0, 0, 0, 0, 128, 63, 0, 127, 127, 63, 255, 51, 235, 59, 46, 189, 187, 179, 0, 0, 0, 0, 0, 0, 128, 63, 21, 0, 127, 74, 0, 56, 0, 0, 232, 244, 175, 190, 0, 0, 128, 190, 3, 102, 84, 63, 0, 129, 127, 193, 87, 57, 151, 59, 21, 239, 195, 190, 0, 0, 0, 0, 94, 131, 108, 63, 206, 0, 76, 63, 0, 55, 0, 0, 21, 239, 195, 190, 0, 0, 0, 0, 94, 131, 108, 63, 235, 0, 105, 63, 0, 55, 0, 0, 21, 239, 195, 190, 0, 0, 0, 0, 94, 131, 108, 63, 0, 127, 127, 63, 15, 49, 198, 59, 16, 144, 34, 191, 0, 0, 128, 190, 18, 144, 34, 63, 0, 129, 126, 193, 199, 56, 56, 59, 242, 4, 53, 191, 0, 0, 0, 0, 244, 4, 53, 63, 180, 0, 50, 63, 0, 54, 0, 0, 242, 4, 53, 191, 0, 0, 0, 0, 244, 4, 53, 63, 206, 0, 76, 63, 0, 54, 0, 0, 242, 4, 53, 191, 0, 0, 0, 0, 244, 4, 53, 63, 0, 127, 127, 63, 35, 45, 91, 59, 3, 102, 84, 191, 0, 0, 128, 190, 237, 244, 175, 62, 0, 129, 126, 193, 104, 56, 168, 58, 94, 131, 108, 191, 0, 0, 0, 0, 26, 239, 195, 62, 151, 0, 21, 63, 0, 53, 0, 0, 94, 131, 108, 191, 0, 0, 0, 0, 26, 239, 195, 62, 180, 0, 50, 63, 0, 53, 0, 0, 94, 131, 108, 191, 0, 0, 0, 0, 26, 239, 195, 62, 0, 127, 126, 63, 60, 39, 188, 58, 2, 230, 101, 191, 0, 0, 128, 190, 63, 56, 170, 177, 0, 129, 126, 193, 70, 56, 0, 58, 0, 0, 128, 191, 0, 0, 0, 0, 46, 222, 76, 178, 151, 0, 21, 63, 0, 52, 0, 0, 0, 0, 128, 191, 0, 0, 0, 0, 46, 222, 76, 178, 129, 21, 235, 63, 0, 52, 0, 0, 0, 0, 128, 191, 0, 0, 0, 0, 46, 222, 76, 178, 0, 127, 126, 63, 30, 33, 0, 58, 2, 102, 84, 191, 0, 0, 128, 190, 238, 244, 175, 190, 0, 129, 127, 193, 104, 56, 87, 57, 93, 131, 108, 191, 0, 0, 0, 0, 27, 239, 195, 190, 129, 21, 235, 63, 0, 50, 0, 0, 93, 131, 108, 191, 0, 0, 0, 0, 27, 239, 195, 190, 129, 50, 206, 63, 0, 50, 0, 0, 93, 131, 108, 191, 0, 0, 0, 0, 27, 239, 195, 190, 0, 127, 126, 63, 60, 39, 67, 57, 19, 144, 34, 191, 0, 0, 128, 190, 15, 144, 34, 191, 0, 129, 127, 193, 199, 56, 199, 56, 245, 4, 53, 191, 0, 0, 0, 0, 241, 4, 53, 191, 129, 50, 206, 63, 0, 48, 0, 0, 245, 4, 53, 191, 0, 0, 0, 0, 241, 4, 53, 191, 129, 76, 180, 63, 0, 48, 0, 0, 245, 4, 53, 191, 0, 0, 0, 0, 241, 4, 53, 191, 0, 127, 127, 63, 35, 45, 164, 56, 232, 244, 175, 190, 0, 0, 128, 190, 4, 102, 84, 191, 0, 129, 126, 193, 87, 57, 104, 56, 21, 239, 195, 190, 0, 0, 0, 0, 95, 131, 108, 191, 129, 76, 180, 63, 0, 44, 0, 0, 21, 239, 195, 190, 0, 0, 0, 0, 95, 131, 108, 191, 129, 105, 151, 63, 0, 44, 0, 0, 21, 239, 195, 190, 0, 0, 0, 0, 95, 131, 108, 191, 0, 127, 126, 63, 15, 49, 57, 56, 0, 0, 0, 0, 0, 0, 128, 190, 0, 0, 128, 191, 129, 105, 151, 63, 0, 0, 0, 56, 0, 0, 0, 0, 0, 0, 128, 190, 0, 0, 128, 191, 0, 129, 126, 193, 0, 58, 20, 56, 0, 0, 0, 0, 0, 0, 128, 190, 0, 0, 128, 191, 127, 105, 129, 74, 0, 60, 0, 56, 22, 239, 195, 62, 0, 0, 128, 190, 94, 131, 108, 191, 0, 129, 127, 193, 188, 58, 57, 56, 22, 239, 195, 62, 0, 0, 128, 190, 94, 131, 108, 191, 127, 105, 129, 74, 128, 59, 0, 56, 22, 239, 195, 62, 0, 0, 128, 190, 94, 131, 108, 191, 127, 76, 129, 88, 128, 59, 0, 56, 243, 4, 53, 63, 0, 0, 128, 190, 243, 4, 53, 191, 0, 129, 126, 193, 91, 59, 164, 56, 243, 4, 53, 63, 0, 0, 128, 190, 243, 4, 53, 191, 127, 76, 129, 88, 0, 59, 0, 56, 243, 4, 53, 63, 0, 0, 128, 190, 243, 4, 53, 191, 127, 50, 129, 101, 0, 59, 0, 56, 94, 131, 108, 63, 0, 0, 128, 190, 21, 239, 195, 190, 0, 129, 127, 193, 198, 59, 67, 57, 94, 131, 108, 63, 0, 0, 128, 190, 21, 239, 195, 190, 0, 130, 126, 193, 198, 59, 67, 57, 94, 131, 108, 63, 0, 0, 128, 190, 21, 239, 195, 190, 127, 50, 129, 101, 128, 58, 0, 56, 94, 131, 108, 63, 0, 0, 128, 190, 21, 239, 195, 190, 127, 21, 129, 116, 128, 58, 0, 56, 0, 0, 128, 63, 0, 0, 128, 190, 46, 189, 59, 51, 0, 130, 126, 193, 235, 59, 0, 58, 0, 0, 128, 63, 0, 0, 128, 190, 46, 189, 59, 51, 0, 130, 126, 193, 235, 59, 0, 58, 0, 0, 128, 63, 0, 0, 128, 190, 46, 189, 59, 51, 127, 21, 129, 116, 0, 58, 0, 56, 0, 0, 128, 63, 0, 0, 128, 190, 46, 189, 59, 51, 105, 0, 127, 116, 0, 58, 0, 56, 95, 131, 108, 63, 0, 0, 128, 190, 20, 239, 195, 62, 0, 130, 126, 193, 198, 59, 188, 58, 95, 131, 108, 63, 0, 0, 128, 190, 20, 239, 195, 62, 0, 129, 127, 193, 198, 59, 188, 58, 95, 131, 108, 63, 0, 0, 128, 190, 20, 239, 195, 62, 76, 0, 127, 101, 128, 57, 0, 56, 95, 131, 108, 63, 0, 0, 128, 190, 20, 239, 195, 62, 105, 0, 127, 116, 128, 57, 0, 56, 243, 4, 53, 63, 0, 0, 128, 190, 243, 4, 53, 63, 0, 129, 127, 193, 91, 59, 91, 59, 243, 4, 53, 63, 0, 0, 128, 190, 243, 4, 53, 63, 50, 0, 127, 88, 0, 57, 0, 56, 243, 4, 53, 63, 0, 0, 128, 190, 243, 4, 53, 63, 76, 0, 127, 101, 0, 57, 0, 56, 23, 239, 195, 62, 0, 0, 128, 190, 94, 131, 108, 63, 0, 129, 127, 193, 188, 58, 198, 59, 23, 239, 195, 62, 0, 0, 128, 190, 94, 131, 108, 63, 21, 0, 127, 74, 128, 56, 0, 56, 23, 239, 195, 62, 0, 0, 128, 190, 94, 131, 108, 63, 50, 0, 127, 88, 128, 56, 0, 56, 46, 189, 187, 179, 0, 0, 128, 190, 0, 0, 128, 63, 235, 0, 105, 63, 0, 56, 0, 56, 46, 189, 187, 179, 0, 0, 128, 190, 0, 0, 128, 63, 0, 129, 126, 193, 0, 58, 235, 59, 46, 189, 187, 179, 0, 0, 128, 190, 0, 0, 128, 63, 21, 0, 127, 74, 0, 56, 0, 56, 21, 239, 195, 190, 0, 0, 128, 190, 94, 131, 108, 63, 206, 0, 76, 63, 0, 55, 0, 56, 21, 239, 195, 190, 0, 0, 128, 190, 94, 131, 108, 63, 235, 0, 105, 63, 0, 55, 0, 56, 21, 239, 195, 190, 0, 0, 128, 190, 94, 131, 108, 63, 0, 129, 127, 193, 67, 57, 198, 59, 242, 4, 53, 191, 0, 0, 128, 190, 244, 4, 53, 63, 180, 0, 50, 63, 0, 54, 0, 56, 242, 4, 53, 191, 0, 0, 128, 190, 244, 4, 53, 63, 206, 0, 76, 63, 0, 54, 0, 56, 242, 4, 53, 191, 0, 0, 128, 190, 244, 4, 53, 63, 0, 129, 126, 193, 164, 56, 91, 59, 94, 131, 108, 191, 0, 0, 128, 190, 26, 239, 195, 62, 151, 0, 21, 63, 0, 53, 0, 56, 94, 131, 108, 191, 0, 0, 128, 190, 26, 239, 195, 62, 180, 0, 50, 63, 0, 53, 0, 56, 94, 131, 108, 191, 0, 0, 128, 190, 26, 239, 195, 62, 0, 129, 126, 193, 57, 56, 188, 58, 0, 0, 128, 191, 0, 0, 128, 190, 46, 222, 76, 178, 151, 0, 21, 63, 0, 52, 0, 56, 0, 0, 128, 191, 0, 0, 128, 190, 46, 222, 76, 178, 129, 21, 235, 63, 0, 52, 0, 56, 0, 0, 128, 191, 0, 0, 128, 190, 46, 222, 76, 178, 0, 129, 127, 193, 20, 56, 0, 58, 93, 131, 108, 191, 0, 0, 128, 190, 27, 239, 195, 190, 129, 21, 235, 63, 0, 50, 0, 56, 93, 131, 108, 191, 0, 0, 128, 190, 27, 239, 195, 190, 129, 50, 206, 63, 0, 50, 0, 56, 93, 131, 108, 191, 0, 0, 128, 190, 27, 239, 195, 190, 0, 129, 127, 193, 57, 56, 67, 57, 245, 4, 53, 191, 0, 0, 128, 190, 241, 4, 53, 191, 129, 50, 206, 63, 0, 48, 0, 56, 245, 4, 53, 191, 0, 0, 128, 190, 241, 4, 53, 191, 129, 76, 180, 63, 0, 48, 0, 56, 245, 4, 53, 191, 0, 0, 128, 190, 241, 4, 53, 191, 0, 129, 127, 193, 164, 56, 164, 56, 21, 239, 195, 190, 0, 0, 128, 190, 95, 131, 108, 191, 129, 76, 180, 63, 0, 44, 0, 56, 21, 239, 195, 190, 0, 0, 128, 190, 95, 131, 108, 191, 129, 105, 151, 63, 0, 44, 0, 56, 21, 239, 195, 190, 0, 0, 128, 190, 95, 131, 108, 191, 0, 129, 126, 193, 67, 57, 57, 56 ),
"array_index_data": PoolByteArray( 69, 0, 6, 0, 3, 0, 69, 0, 71, 0, 6, 0, 72, 0, 10, 0, 7, 0, 72, 0, 74, 0, 10, 0, 75, 0, 15, 0, 11, 0, 75, 0, 78, 0, 15, 0, 79, 0, 20, 0, 16, 0, 79, 0, 82, 0, 20, 0, 83, 0, 26, 0, 21, 0, 83, 0, 87, 0, 26, 0, 86, 0, 30, 0, 25, 0, 86, 0, 90, 0, 30, 0, 89, 0, 34, 0, 29, 0, 89, 0, 93, 0, 34, 0, 92, 0, 38, 0, 33, 0, 92, 0, 96, 0, 38, 0, 94, 0, 41, 0, 36, 0, 94, 0, 98, 0, 41, 0, 97, 0, 45, 0, 40, 0, 97, 0, 101, 0, 45, 0, 100, 0, 49, 0, 44, 0, 100, 0, 104, 0, 49, 0, 103, 0, 52, 0, 48, 0, 103, 0, 106, 0, 52, 0, 107, 0, 56, 0, 53, 0, 107, 0, 109, 0, 56, 0, 110, 0, 60, 0, 57, 0, 110, 0, 112, 0, 60, 0, 9, 0, 2, 0, 5, 0, 2, 0, 62, 0, 66, 0, 62, 0, 54, 0, 58, 0, 54, 0, 46, 0, 50, 0, 46, 0, 37, 0, 42, 0, 37, 0, 28, 0, 32, 0, 28, 0, 19, 0, 24, 0, 19, 0, 9, 0, 14, 0, 9, 0, 62, 0, 2, 0, 62, 0, 46, 0, 54, 0, 46, 0, 28, 0, 37, 0, 28, 0, 9, 0, 19, 0, 9, 0, 46, 0, 62, 0, 46, 0, 9, 0, 28, 0, 113, 0, 64, 0, 61, 0, 113, 0, 115, 0, 64, 0, 116, 0, 1, 0, 65, 0, 116, 0, 67, 0, 1, 0, 4, 0, 68, 0, 0, 0, 4, 0, 70, 0, 68, 0, 8, 0, 70, 0, 4, 0, 8, 0, 73, 0, 70, 0, 12, 0, 73, 0, 8, 0, 12, 0, 76, 0, 73, 0, 18, 0, 77, 0, 13, 0, 18, 0, 81, 0, 77, 0, 22, 0, 80, 0, 17, 0, 22, 0, 84, 0, 80, 0, 27, 0, 85, 0, 23, 0, 27, 0, 88, 0, 85, 0, 31, 0, 88, 0, 27, 0, 31, 0, 91, 0, 88, 0, 35, 0, 91, 0, 31, 0, 35, 0, 95, 0, 91, 0, 39, 0, 95, 0, 35, 0, 39, 0, 99, 0, 95, 0, 43, 0, 99, 0, 39, 0, 43, 0, 102, 0, 99, 0, 47, 0, 102, 0, 43, 0, 47, 0, 105, 0, 102, 0, 51, 0, 105, 0, 47, 0, 51, 0, 108, 0, 105, 0, 55, 0, 108, 0, 51, 0, 55, 0, 111, 0, 108, 0, 59, 0, 111, 0, 55, 0, 59, 0, 114, 0, 111, 0, 63, 0, 114, 0, 59, 0, 63, 0, 117, 0, 114, 0, 0, 0, 117, 0, 63, 0, 0, 0, 68, 0, 117, 0 ),
"blend_shape_data": [  ],
"format": 2194711,
"index_count": 234,
"material": ExtResource( 1 ),
"primitive": 4,
"skeleton_aabb": [  ],
"vertex_count": 118
}
surfaces/1 = {
"aabb": AABB( -0.898041, -0.25, -0.898041, 1.79608, 9.99868e-06, 1.79608 ),
"array_data": PoolByteArray( 27, 132, 239, 177, 0, 0, 128, 190, 2, 230, 101, 191, 0, 129, 127, 193, 0, 58, 70, 56, 233, 244, 175, 62, 0, 0, 128, 190, 3, 102, 84, 191, 0, 129, 127, 193, 168, 58, 104, 56, 17, 144, 34, 63, 0, 0, 128, 190, 17, 144, 34, 191, 0, 129, 127, 193, 56, 59, 199, 56, 3, 102, 84, 63, 0, 0, 128, 190, 232, 244, 175, 190, 0, 129, 127, 193, 151, 59, 87, 57, 2, 230, 101, 63, 0, 0, 128, 190, 219, 178, 79, 51, 0, 129, 127, 193, 185, 59, 0, 58, 4, 102, 84, 63, 0, 0, 128, 190, 231, 244, 175, 62, 0, 129, 127, 193, 151, 59, 168, 58, 17, 144, 34, 63, 0, 0, 128, 190, 17, 144, 34, 63, 0, 129, 127, 193, 56, 59, 56, 59, 234, 244, 175, 62, 0, 0, 128, 190, 3, 102, 84, 63, 0, 129, 127, 193, 168, 58, 151, 59, 236, 196, 172, 179, 0, 0, 128, 190, 2, 230, 101, 63, 0, 129, 127, 193, 0, 58, 185, 59, 232, 244, 175, 190, 0, 0, 128, 190, 3, 102, 84, 63, 0, 129, 127, 193, 87, 57, 151, 59, 16, 144, 34, 191, 0, 0, 128, 190, 18, 144, 34, 63, 0, 129, 127, 193, 199, 56, 56, 59, 3, 102, 84, 191, 0, 0, 128, 190, 237, 244, 175, 62, 0, 129, 126, 193, 104, 56, 168, 58, 2, 230, 101, 191, 0, 0, 128, 190, 63, 56, 170, 177, 0, 129, 127, 193, 70, 56, 0, 58, 2, 102, 84, 191, 0, 0, 128, 190, 238, 244, 175, 190, 0, 129, 126, 193, 104, 56, 87, 57, 19, 144, 34, 191, 0, 0, 128, 190, 15, 144, 34, 191, 0, 129, 126, 193, 199, 56, 199, 56, 232, 244, 175, 190, 0, 0, 128, 190, 4, 102, 84, 191, 0, 129, 126, 193, 87, 57, 104, 56 ),
"array_index_data": PoolByteArray( 15, 0, 1, 0, 0, 0, 1, 0, 3, 0, 2, 0, 3, 0, 5, 0, 4, 0, 5, 0, 7, 0, 6, 0, 7, 0, 9, 0, 8, 0, 9, 0, 11, 0, 10, 0, 11, 0, 13, 0, 12, 0, 13, 0, 15, 0, 14, 0, 15, 0, 3, 0, 1, 0, 3, 0, 7, 0, 5, 0, 7, 0, 11, 0, 9, 0, 11, 0, 15, 0, 13, 0, 15, 0, 7, 0, 3, 0, 7, 0, 15, 0, 11, 0 ),
"blend_shape_data": [  ],
"format": 2194711,
"index_count": 42,
"material": SubResource( 2 ),
"primitive": 4,
"skeleton_aabb": [  ],
"vertex_count": 16
}

[sub_resource type="SpatialMaterial" id=4]
resource_name = "light"
vertex_color_use_as_albedo = true
params_cull_mode = 2
albedo_color = Color( 1, 0.831373, 0.831373, 1 )
roughness = 0.5
emission_enabled = true
emission = Color( 1, 0, 0, 1 )
emission_energy = 0.2
emission_operator = 0
emission_on_uv2 = false

[sub_resource type="ArrayMesh" id=5]
resource_name = "lamp_Cylinder"
surfaces/0 = {
"aabb": AABB( -1, -0.25, -1, 2, 0.25, 2 ),
"array_data": PoolByteArray( 27, 132, 239, 177, 0, 0, 128, 190, 2, 230, 101, 191, 0, 129, 126, 193, 0, 58, 70, 56, 0, 0, 0, 0, 0, 0, 0, 0, 0, 0, 128, 191, 129, 105, 151, 63, 0, 0, 0, 0, 0, 0, 0, 0, 0, 0, 0, 0, 0, 0, 128, 191, 0, 127, 127, 63, 0, 52, 20, 56, 0, 0, 0, 0, 0, 0, 0, 0, 0, 0, 128, 191, 127, 105, 129, 74, 0, 60, 0, 0, 233, 244, 175, 62, 0, 0, 128, 190, 3, 102, 84, 191, 0, 129, 127, 193, 168, 58, 104, 56, 22, 239, 195, 62, 0, 0, 0, 0, 94, 131, 108, 191, 0, 127, 127, 63, 120, 53, 57, 56, 22, 239, 195, 62, 0, 0, 0, 0, 94, 131, 108, 191, 127, 105, 129, 74, 128, 59, 0, 0, 22, 239, 195, 62, 0, 0, 0, 0, 94, 131, 108, 191, 127, 76, 129, 88, 128, 59, 0, 0, 17, 144, 34, 63, 0, 0, 128, 190, 17, 144, 34, 191, 0, 129, 126, 193, 56, 59, 199, 56, 243, 4, 53, 63, 0, 0, 0, 0, 243, 4, 53, 191, 0, 127, 127, 63, 183, 54, 164, 56, 243, 4, 53, 63, 0, 0, 0, 0, 243, 4, 53, 191, 127, 76, 129, 88, 0, 59, 0, 0, 243, 4, 53, 63, 0, 0, 0, 0, 243, 4, 53, 191, 127, 50, 129, 101, 0, 59, 0, 0, 3, 102, 84, 63, 0, 0, 128, 190, 232, 244, 175, 190, 0, 129, 127, 193, 151, 59, 87, 57, 3, 102, 84, 63, 0, 0, 128, 190, 232, 244, 175, 190, 0, 130, 126, 193, 151, 59, 87, 57, 94, 131, 108, 63, 0, 0, 0, 0, 21, 239, 195, 190, 0, 127, 127, 63, 140, 55, 67, 57, 94, 131, 108, 63, 0, 0, 0, 0, 21, 239, 195, 190, 127, 50, 129, 101, 128, 58, 0, 0, 94, 131, 108, 63, 0, 0, 0, 0, 21, 239, 195, 190, 127, 21, 129, 116, 128, 58, 0, 0, 2, 230, 101, 63, 0, 0, 128, 190, 219, 178, 79, 51, 0, 130, 126, 193, 185, 59, 0, 58, 2, 230, 101, 63, 0, 0, 128, 190, 219, 178, 79, 51, 0, 130, 126, 193, 185, 59, 0, 58, 0, 0, 128, 63, 0, 0, 0, 0, 46, 189, 59, 51, 0, 127, 126, 63, 215, 55, 0, 58, 0, 0, 128, 63, 0, 0, 0, 0, 46, 189, 59, 51, 127, 21, 129, 116, 0, 58, 0, 0, 0, 0, 128, 63, 0, 0, 0, 0, 46, 189, 59, 51, 105, 0, 127, 116, 0, 58, 0, 0, 4, 102, 84, 63, 0, 0, 128, 190, 231, 244, 175, 62, 0, 130, 126, 193, 151, 59, 168, 58, 4, 102, 84, 63, 0, 0, 128, 190, 231, 244, 175, 62, 0, 129, 127, 193, 151, 59, 168, 58, 95, 131, 108, 63, 0, 0, 0, 0, 20, 239, 195, 62, 0, 127, 127, 63, 140, 55, 188, 58, 95, 131, 108, 63, 0, 0, 0, 0, 20, 239, 195, 62, 76, 0, 127, 101, 128, 57, 0, 0, 95, 131, 108, 63, 0, 0, 0, 0, 20, 239, 195, 62, 105, 0, 127, 116, 128, 57, 0, 0, 17, 144, 34, 63, 0, 0, 128, 190, 17, 144, 34, 63, 0, 129, 127, 193, 56, 59, 56, 59, 243, 4, 53, 63, 0, 0, 0, 0, 243, 4, 53, 63, 0, 127, 127, 63, 183, 54, 91, 59, 243, 4, 53, 63, 0, 0, 0, 0, 243, 4, 53, 63, 50, 0, 127, 88, 0, 57, 0, 0, 243, 4, 53, 63, 0, 0, 0, 0, 243, 4, 53, 63, 76, 0, 127, 101, 0, 57, 0, 0, 234, 244, 175, 62, 0, 0, 128, 190, 3, 102, 84, 63, 0, 129, 127, 193, 168, 58, 151, 59, 23, 239, 195, 62, 0, 0, 0, 0, 94, 131, 108, 63, 0, 127, 126, 63, 120, 53, 198, 59, 23, 239, 195, 62, 0, 0, 0, 0, 94, 131, 108, 63, 21, 0, 127, 74, 128, 56, 0, 0, 23, 239, 195, 62, 0, 0, 0, 0, 94, 131, 108, 63, 50, 0, 127, 88, 128, 56, 0, 0, 236, 196, 172, 179, 0, 0, 128, 190, 2, 230, 101, 63, 0, 129, 126, 193, 0, 58, 185, 59, 46, 189, 187, 179, 0, 0, 0, 0, 0, 0, 128, 63, 235, 0, 105, 63, 0, 56, 0, 0, 46, 189, 187, 179, 0, 0, 0, 0, 0, 0, 128, 63, 0, 127, 127, 63, 255, 51, 235, 59, 46, 189, 187, 179, 0, 0, 0, 0, 0, 0, 128, 63, 21, 0, 127, 74, 0, 56, 0, 0, 232, 244, 175, 190, 0, 0, 128, 190, 3, 102, 84, 63, 0, 129, 127, 193, 87, 57, 151, 59, 21, 239, 195, 190, 0, 0, 0, 0, 94, 131, 108, 63, 206, 0, 76, 63, 0, 55, 0, 0, 21, 239, 195, 190, 0, 0, 0, 0, 94, 131, 108, 63, 235, 0, 105, 63, 0, 55, 0, 0, 21, 239, 195, 190, 0, 0, 0, 0, 94, 131, 108, 63, 0, 127, 127, 63, 15, 49, 198, 59, 16, 144, 34, 191, 0, 0, 128, 190, 18, 144, 34, 63, 0, 129, 126, 193, 199, 56, 56, 59, 242, 4, 53, 191, 0, 0, 0, 0, 244, 4, 53, 63, 180, 0, 50, 63, 0, 54, 0, 0, 242, 4, 53, 191, 0, 0, 0, 0, 244, 4, 53, 63, 206, 0, 76, 63, 0, 54, 0, 0, 242, 4, 53, 191, 0, 0, 0, 0, 244, 4, 53, 63, 0, 127, 127, 63, 35, 45, 91, 59, 3, 102, 84, 191, 0, 0, 128, 190, 237, 244, 175, 62, 0, 129, 126, 193, 104, 56, 168, 58, 94, 131, 108, 191, 0, 0, 0, 0, 26, 239, 195, 62, 151, 0, 21, 63, 0, 53, 0, 0, 94, 131, 108, 191, 0, 0, 0, 0, 26, 239, 195, 62, 180, 0, 50, 63, 0, 53, 0, 0, 94, 131, 108, 191, 0, 0, 0, 0, 26, 239, 195, 62, 0, 127, 126, 63, 60, 39, 188, 58, 2, 230, 101, 191, 0, 0, 128, 190, 63, 56, 170, 177, 0, 129, 126, 193, 70, 56, 0, 58, 0, 0, 128, 191, 0, 0, 0, 0, 46, 222, 76, 178, 151, 0, 21, 63, 0, 52, 0, 0, 0, 0, 128, 191, 0, 0, 0, 0, 46, 222, 76, 178, 129, 21, 235, 63, 0, 52, 0, 0, 0, 0, 128, 191, 0, 0, 0, 0, 46, 222, 76, 178, 0, 127, 126, 63, 30, 33, 0, 58, 2, 102, 84, 191, 0, 0, 128, 190, 238, 244, 175, 190, 0, 129, 127, 193, 104, 56, 87, 57, 93, 131, 108, 191, 0, 0, 0, 0, 27, 239, 195, 190, 129, 21, 235, 63, 0, 50, 0, 0, 93, 131, 108, 191, 0, 0, 0, 0, 27, 239, 195, 190, 129, 50, 206, 63, 0, 50, 0, 0, 93, 131, 108, 191, 0, 0, 0, 0, 27, 239, 195, 190, 0, 127, 126, 63, 60, 39, 67, 57, 19, 144, 34, 191, 0, 0, 128, 190, 15, 144, 34, 191, 0, 129, 127, 193, 199, 56, 199, 56, 245, 4, 53, 191, 0, 0, 0, 0, 241, 4, 53, 191, 129, 50, 206, 63, 0, 48, 0, 0, 245, 4, 53, 191, 0, 0, 0, 0, 241, 4, 53, 191, 129, 76, 180, 63, 0, 48, 0, 0, 245, 4, 53, 191, 0, 0, 0, 0, 241, 4, 53, 191, 0, 127, 127, 63, 35, 45, 164, 56, 232, 244, 175, 190, 0, 0, 128, 190, 4, 102, 84, 191, 0, 129, 126, 193, 87, 57, 104, 56, 21, 239, 195, 190, 0, 0, 0, 0, 95, 131, 108, 191, 129, 76, 180, 63, 0, 44, 0, 0, 21, 239, 195, 190, 0, 0, 0, 0, 95, 131, 108, 191, 129, 105, 151, 63, 0, 44, 0, 0, 21, 239, 195, 190, 0, 0, 0, 0, 95, 131, 108, 191, 0, 127, 126, 63, 15, 49, 57, 56, 0, 0, 0, 0, 0, 0, 128, 190, 0, 0, 128, 191, 129, 105, 151, 63, 0, 0, 0, 56, 0, 0, 0, 0, 0, 0, 128, 190, 0, 0, 128, 191, 0, 129, 126, 193, 0, 58, 20, 56, 0, 0, 0, 0, 0, 0, 128, 190, 0, 0, 128, 191, 127, 105, 129, 74, 0, 60, 0, 56, 22, 239, 195, 62, 0, 0, 128, 190, 94, 131, 108, 191, 0, 129, 127, 193, 188, 58, 57, 56, 22, 239, 195, 62, 0, 0, 128, 190, 94, 131, 108, 191, 127, 105, 129, 74, 128, 59, 0, 56, 22, 239, 195, 62, 0, 0, 128, 190, 94, 131, 108, 191, 127, 76, 129, 88, 128, 59, 0, 56, 243, 4, 53, 63, 0, 0, 128, 190, 243, 4, 53, 191, 0, 129, 126, 193, 91, 59, 164, 56, 243, 4, 53, 63, 0, 0, 128, 190, 243, 4, 53, 191, 127, 76, 129, 88, 0, 59, 0, 56, 243, 4, 53, 63, 0, 0, 128, 190, 243, 4, 53, 191, 127, 50, 129, 101, 0, 59, 0, 56, 94, 131, 108, 63, 0, 0, 128, 190, 21, 239, 195, 190, 0, 129, 127, 193, 198, 59, 67, 57, 94, 131, 108, 63, 0, 0, 128, 190, 21, 239, 195, 190, 0, 130, 126, 193, 198, 59, 67, 57, 94, 131, 108, 63, 0, 0, 128, 190, 21, 239, 195, 190, 127, 50, 129, 101, 128, 58, 0, 56, 94, 131, 108, 63, 0, 0, 128, 190, 21, 239, 195, 190, 127, 21, 129, 116, 128, 58, 0, 56, 0, 0, 128, 63, 0, 0, 128, 190, 46, 189, 59, 51, 0, 130, 126, 193, 235, 59, 0, 58, 0, 0, 128, 63, 0, 0, 128, 190, 46, 189, 59, 51, 0, 130, 126, 193, 235, 59, 0, 58, 0, 0, 128, 63, 0, 0, 128, 190, 46, 189, 59, 51, 127, 21, 129, 116, 0, 58, 0, 56, 0, 0, 128, 63, 0, 0, 128, 190, 46, 189, 59, 51, 105, 0, 127, 116, 0, 58, 0, 56, 95, 131, 108, 63, 0, 0, 128, 190, 20, 239, 195, 62, 0, 130, 126, 193, 198, 59, 188, 58, 95, 131, 108, 63, 0, 0, 128, 190, 20, 239, 195, 62, 0, 129, 127, 193, 198, 59, 188, 58, 95, 131, 108, 63, 0, 0, 128, 190, 20, 239, 195, 62, 76, 0, 127, 101, 128, 57, 0, 56, 95, 131, 108, 63, 0, 0, 128, 190, 20, 239, 195, 62, 105, 0, 127, 116, 128, 57, 0, 56, 243, 4, 53, 63, 0, 0, 128, 190, 243, 4, 53, 63, 0, 129, 127, 193, 91, 59, 91, 59, 243, 4, 53, 63, 0, 0, 128, 190, 243, 4, 53, 63, 50, 0, 127, 88, 0, 57, 0, 56, 243, 4, 53, 63, 0, 0, 128, 190, 243, 4, 53, 63, 76, 0, 127, 101, 0, 57, 0, 56, 23, 239, 195, 62, 0, 0, 128, 190, 94, 131, 108, 63, 0, 129, 127, 193, 188, 58, 198, 59, 23, 239, 195, 62, 0, 0, 128, 190, 94, 131, 108, 63, 21, 0, 127, 74, 128, 56, 0, 56, 23, 239, 195, 62, 0, 0, 128, 190, 94, 131, 108, 63, 50, 0, 127, 88, 128, 56, 0, 56, 46, 189, 187, 179, 0, 0, 128, 190, 0, 0, 128, 63, 235, 0, 105, 63, 0, 56, 0, 56, 46, 189, 187, 179, 0, 0, 128, 190, 0, 0, 128, 63, 0, 129, 126, 193, 0, 58, 235, 59, 46, 189, 187, 179, 0, 0, 128, 190, 0, 0, 128, 63, 21, 0, 127, 74, 0, 56, 0, 56, 21, 239, 195, 190, 0, 0, 128, 190, 94, 131, 108, 63, 206, 0, 76, 63, 0, 55, 0, 56, 21, 239, 195, 190, 0, 0, 128, 190, 94, 131, 108, 63, 235, 0, 105, 63, 0, 55, 0, 56, 21, 239, 195, 190, 0, 0, 128, 190, 94, 131, 108, 63, 0, 129, 127, 193, 67, 57, 198, 59, 242, 4, 53, 191, 0, 0, 128, 190, 244, 4, 53, 63, 180, 0, 50, 63, 0, 54, 0, 56, 242, 4, 53, 191, 0, 0, 128, 190, 244, 4, 53, 63, 206, 0, 76, 63, 0, 54, 0, 56, 242, 4, 53, 191, 0, 0, 128, 190, 244, 4, 53, 63, 0, 129, 126, 193, 164, 56, 91, 59, 94, 131, 108, 191, 0, 0, 128, 190, 26, 239, 195, 62, 151, 0, 21, 63, 0, 53, 0, 56, 94, 131, 108, 191, 0, 0, 128, 190, 26, 239, 195, 62, 180, 0, 50, 63, 0, 53, 0, 56, 94, 131, 108, 191, 0, 0, 128, 190, 26, 239, 195, 62, 0, 129, 126, 193, 57, 56, 188, 58, 0, 0, 128, 191, 0, 0, 128, 190, 46, 222, 76, 178, 151, 0, 21, 63, 0, 52, 0, 56, 0, 0, 128, 191, 0, 0, 128, 190, 46, 222, 76, 178, 129, 21, 235, 63, 0, 52, 0, 56, 0, 0, 128, 191, 0, 0, 128, 190, 46, 222, 76, 178, 0, 129, 127, 193, 20, 56, 0, 58, 93, 131, 108, 191, 0, 0, 128, 190, 27, 239, 195, 190, 129, 21, 235, 63, 0, 50, 0, 56, 93, 131, 108, 191, 0, 0, 128, 190, 27, 239, 195, 190, 129, 50, 206, 63, 0, 50, 0, 56, 93, 131, 108, 191, 0, 0, 128, 190, 27, 239, 195, 190, 0, 129, 127, 193, 57, 56, 67, 57, 245, 4, 53, 191, 0, 0, 128, 190, 241, 4, 53, 191, 129, 50, 206, 63, 0, 48, 0, 56, 245, 4, 53, 191, 0, 0, 128, 190, 241, 4, 53, 191, 129, 76, 180, 63, 0, 48, 0, 56, 245, 4, 53, 191, 0, 0, 128, 190, 241, 4, 53, 191, 0, 129, 127, 193, 164, 56, 164, 56, 21, 239, 195, 190, 0, 0, 128, 190, 95, 131, 108, 191, 129, 76, 180, 63, 0, 44, 0, 56, 21, 239, 195, 190, 0, 0, 128, 190, 95, 131, 108, 191, 129, 105, 151, 63, 0, 44, 0, 56, 21, 239, 195, 190, 0, 0, 128, 190, 95, 131, 108, 191, 0, 129, 126, 193, 67, 57, 57, 56 ),
"array_index_data": PoolByteArray( 69, 0, 6, 0, 3, 0, 69, 0, 71, 0, 6, 0, 72, 0, 10, 0, 7, 0, 72, 0, 74, 0, 10, 0, 75, 0, 15, 0, 11, 0, 75, 0, 78, 0, 15, 0, 79, 0, 20, 0, 16, 0, 79, 0, 82, 0, 20, 0, 83, 0, 26, 0, 21, 0, 83, 0, 87, 0, 26, 0, 86, 0, 30, 0, 25, 0, 86, 0, 90, 0, 30, 0, 89, 0, 34, 0, 29, 0, 89, 0, 93, 0, 34, 0, 92, 0, 38, 0, 33, 0, 92, 0, 96, 0, 38, 0, 94, 0, 41, 0, 36, 0, 94, 0, 98, 0, 41, 0, 97, 0, 45, 0, 40, 0, 97, 0, 101, 0, 45, 0, 100, 0, 49, 0, 44, 0, 100, 0, 104, 0, 49, 0, 103, 0, 52, 0, 48, 0, 103, 0, 106, 0, 52, 0, 107, 0, 56, 0, 53, 0, 107, 0, 109, 0, 56, 0, 110, 0, 60, 0, 57, 0, 110, 0, 112, 0, 60, 0, 9, 0, 2, 0, 5, 0, 2, 0, 62, 0, 66, 0, 62, 0, 54, 0, 58, 0, 54, 0, 46, 0, 50, 0, 46, 0, 37, 0, 42, 0, 37, 0, 28, 0, 32, 0, 28, 0, 19, 0, 24, 0, 19, 0, 9, 0, 14, 0, 9, 0, 62, 0, 2, 0, 62, 0, 46, 0, 54, 0, 46, 0, 28, 0, 37, 0, 28, 0, 9, 0, 19, 0, 9, 0, 46, 0, 62, 0, 46, 0, 9, 0, 28, 0, 113, 0, 64, 0, 61, 0, 113, 0, 115, 0, 64, 0, 116, 0, 1, 0, 65, 0, 116, 0, 67, 0, 1, 0, 4, 0, 68, 0, 0, 0, 4, 0, 70, 0, 68, 0, 8, 0, 70, 0, 4, 0, 8, 0, 73, 0, 70, 0, 12, 0, 73, 0, 8, 0, 12, 0, 76, 0, 73, 0, 18, 0, 77, 0, 13, 0, 18, 0, 81, 0, 77, 0, 22, 0, 80, 0, 17, 0, 22, 0, 84, 0, 80, 0, 27, 0, 85, 0, 23, 0, 27, 0, 88, 0, 85, 0, 31, 0, 88, 0, 27, 0, 31, 0, 91, 0, 88, 0, 35, 0, 91, 0, 31, 0, 35, 0, 95, 0, 91, 0, 39, 0, 95, 0, 35, 0, 39, 0, 99, 0, 95, 0, 43, 0, 99, 0, 39, 0, 43, 0, 102, 0, 99, 0, 47, 0, 102, 0, 43, 0, 47, 0, 105, 0, 102, 0, 51, 0, 105, 0, 47, 0, 51, 0, 108, 0, 105, 0, 55, 0, 108, 0, 51, 0, 55, 0, 111, 0, 108, 0, 59, 0, 111, 0, 55, 0, 59, 0, 114, 0, 111, 0, 63, 0, 114, 0, 59, 0, 63, 0, 117, 0, 114, 0, 0, 0, 117, 0, 63, 0, 0, 0, 68, 0, 117, 0 ),
"blend_shape_data": [  ],
"format": 2194711,
"index_count": 234,
"material": ExtResource( 1 ),
"primitive": 4,
"skeleton_aabb": [  ],
"vertex_count": 118
}
surfaces/1 = {
"aabb": AABB( -0.898041, -0.25, -0.898041, 1.79608, 9.99868e-06, 1.79608 ),
"array_data": PoolByteArray( 27, 132, 239, 177, 0, 0, 128, 190, 2, 230, 101, 191, 0, 129, 127, 193, 0, 58, 70, 56, 233, 244, 175, 62, 0, 0, 128, 190, 3, 102, 84, 191, 0, 129, 127, 193, 168, 58, 104, 56, 17, 144, 34, 63, 0, 0, 128, 190, 17, 144, 34, 191, 0, 129, 127, 193, 56, 59, 199, 56, 3, 102, 84, 63, 0, 0, 128, 190, 232, 244, 175, 190, 0, 129, 127, 193, 151, 59, 87, 57, 2, 230, 101, 63, 0, 0, 128, 190, 219, 178, 79, 51, 0, 129, 127, 193, 185, 59, 0, 58, 4, 102, 84, 63, 0, 0, 128, 190, 231, 244, 175, 62, 0, 129, 127, 193, 151, 59, 168, 58, 17, 144, 34, 63, 0, 0, 128, 190, 17, 144, 34, 63, 0, 129, 127, 193, 56, 59, 56, 59, 234, 244, 175, 62, 0, 0, 128, 190, 3, 102, 84, 63, 0, 129, 127, 193, 168, 58, 151, 59, 236, 196, 172, 179, 0, 0, 128, 190, 2, 230, 101, 63, 0, 129, 127, 193, 0, 58, 185, 59, 232, 244, 175, 190, 0, 0, 128, 190, 3, 102, 84, 63, 0, 129, 127, 193, 87, 57, 151, 59, 16, 144, 34, 191, 0, 0, 128, 190, 18, 144, 34, 63, 0, 129, 127, 193, 199, 56, 56, 59, 3, 102, 84, 191, 0, 0, 128, 190, 237, 244, 175, 62, 0, 129, 126, 193, 104, 56, 168, 58, 2, 230, 101, 191, 0, 0, 128, 190, 63, 56, 170, 177, 0, 129, 127, 193, 70, 56, 0, 58, 2, 102, 84, 191, 0, 0, 128, 190, 238, 244, 175, 190, 0, 129, 126, 193, 104, 56, 87, 57, 19, 144, 34, 191, 0, 0, 128, 190, 15, 144, 34, 191, 0, 129, 126, 193, 199, 56, 199, 56, 232, 244, 175, 190, 0, 0, 128, 190, 4, 102, 84, 191, 0, 129, 126, 193, 87, 57, 104, 56 ),
"array_index_data": PoolByteArray( 15, 0, 1, 0, 0, 0, 1, 0, 3, 0, 2, 0, 3, 0, 5, 0, 4, 0, 5, 0, 7, 0, 6, 0, 7, 0, 9, 0, 8, 0, 9, 0, 11, 0, 10, 0, 11, 0, 13, 0, 12, 0, 13, 0, 15, 0, 14, 0, 15, 0, 3, 0, 1, 0, 3, 0, 7, 0, 5, 0, 7, 0, 11, 0, 9, 0, 11, 0, 15, 0, 13, 0, 15, 0, 7, 0, 3, 0, 7, 0, 15, 0, 11, 0 ),
"blend_shape_data": [  ],
"format": 2194711,
"index_count": 42,
"material": SubResource( 4 ),
"primitive": 4,
"skeleton_aabb": [  ],
"vertex_count": 16
}

[node name="lamp" type="Spatial"]
transform = Transform( 0.5, 0, 0, 0, 0.5, 0, 0, 0, 0.5, 0, 0, 0 )
script = ExtResource( 3 )

[node name="Normal" type="Spatial" parent="."]

[node name="Cylinder" type="MeshInstance" parent="Normal"]
transform = Transform( 1, 0, 0, 0, 1, 0, 0, 0, 1, 0, 10, 0 )
mesh = SubResource( 1 )
skeleton = NodePath("../..")

[node name="OmniLight" type="OmniLight" parent="Normal"]
transform = Transform( 2, 0, 0, 0, 2, 0, 0, 0, 2, 0, 7.34782, 0 )
light_color = Color( 1, 0.882353, 0.811765, 1 )
light_energy = 2.0
shadow_enabled = true
shadow_bias = 0.5
omni_range = 15.0

[node name="Red" type="Spatial" parent="."]
visible = false

[node name="Cylinder" type="MeshInstance" parent="Red"]
transform = Transform( 1, 0, 0, 0, 1, 0, 0, 0, 1, 0, 10, 0 )
mesh = SubResource( 3 )
skeleton = NodePath("../..")

[node name="OmniLight" type="OmniLight" parent="Red"]
transform = Transform( 2, 0, 0, 0, 2, 0, 0, 0, 2, 0, 7.34782, 0 )
light_color = Color( 1, 0, 0, 1 )
light_energy = 1.5
shadow_enabled = true
shadow_bias = 0.5
omni_range = 15.0

[node name="Dark" type="Spatial" parent="."]
visible = false

[node name="Cylinder" type="MeshInstance" parent="Dark"]
transform = Transform( 1, 0, 0, 0, 1, 0, 0, 0, 1, 0, 10, 0 )
mesh = SubResource( 5 )
skeleton = NodePath("../..")

[node name="OmniLight" type="OmniLight" parent="Dark"]
transform = Transform( 2, 0, 0, 0, 2, 0, 0, 0, 2, 0, 7.34782, 0 )
light_color = Color( 1, 0, 0, 1 )
light_energy = 0.0
shadow_enabled = true
shadow_bias = 0.5
omni_range = 15.0
